{
    "name": "RecipeIngredient",
    "fields": [
        {
            "fieldName": "quantity",
            "fieldType": "Double",
            "fieldValidateRules": [
                "required"
            ]
        }
    ],
    "relationships": [
        {
            "relationshipType": "many-to-one",
            "otherEntityName": "unit",
            "otherEntityRelationshipName": "recipeIngredient",
            "relationshipValidateRules": "required",
            "relationshipName": "recipeIngredientUnit",
            "otherEntityField": "name"
        },
        {
            "relationshipType": "many-to-one",
            "otherEntityName": "ingredient",
            "otherEntityRelationshipName": "recipeIngredient",
            "relationshipValidateRules": "required",
            "relationshipName": "recipeIngredientIngredient",
            "otherEntityField": "name"
        },
        {
            "relationshipType": "many-to-one",
            "otherEntityName": "recipe",
            "otherEntityRelationshipName": "recipeIngredient",
            "relationshipName": "recipe",
            "otherEntityField": "name"
        }
    ],
    "changelogDate": "20200220134200",
    "entityTableName": "recipe_ingredient",
    "dto": "no",
    "pagination": "infinite-scroll",
    "service": "no",
    "jpaMetamodelFiltering": false,
    "fluentMethods": true,
    "readOnly": false,
    "clientRootFolder": "",
    "applications": "*"
}